{
  "success": true,
  "data": {
    "users": [
      {
        "id": 1,
        "name": "张三",
        "email": "zhangsan@example.com",
        "profile": {
          "age": 28,
          "city": "北京",
          "interests": ["编程", "阅读", "旅行"]
        },
        "active": true,
        "created_at": "2023-01-15T08:30:00Z"
      },
      {
        "id": 2,
        "name": "李四",
        "email": "lisi@example.com",
        "profile": {
          "age": 32,
          "city": "上海",
          "interests": ["设计", "音乐", "摄影"]
        },
        "active": false,
        "created_at": "2023-02-20T14:15:00Z"
      }
    ],
    "pagination": {
      "current_page": 1,
      "per_page": 10,
      "total": 25,
      "total_pages": 3
    }
  },
  "message": "用户列表获取成功",
  "timestamp": "2023-12-07T10:30:00Z",
  "version": "1.0.0"
}